[
    {
      "firstName": "Louise",
      "lastName": "Leblanc",
      "email": "louise.leblanc@gmail.com",
      "hashedPassword": "Minoujaime",
      "phoneNumber": "0189798798",
      "street": "1 rue Victor Hugo",
      "ZIPCode": "69001",
      "city": "Lyon"
      
    },
    {
      "firstName": "Caleb",
      "lastName": "Marel",
      "email": "caleb.marel@laposte.fr",
      "hashedPassword": "Soleil4567",
      "phoneNumber": "0674298877",
      "street": "35 avenue des frères Lumière",
      "ZIPCode": "69008",
      "city": "Lyon"
      
    },
    {
      "firstName": "Camille",
      "lastName": "Villier",
      "email": "camille.villier@outlook.com",
      "hashedPassword": "PasswordSecured",
      "phoneNumber": "0622975617",
      "street": "82 boulevard des Brotteaux",
      "ZIPCode": "69006",
      "city": "Lyon"
      
    },
    {
      "firstName": "Pauline",
      "lastName": "Truc",
      "email": "pauline.truc@orange.fr",
      "hashedPassword": "Pasd'idée",
      "phoneNumber": "0718962883",
      "street": "35 avenue des frères Lumière",
      "ZIPCode": "69008",
      "city": "Lyon"
    },
      
    {
      "firstName": "Mia",
      "lastName": "Mahoudi",
      "email": "mia.mahoudi@hotmail.fr",
      "hashedPassword": "Argentina98",
      "phoneNumber": "0765295467",
      "street": "12 rue Bechevelin",
      "ZIPCode": "69007",
      "city": "Lyon"
      
    }
  ]